{
    "app-id" : "ar.com.erebor.EjercicioPigmalion",
    "runtime" : "org.freedesktop.Platform",
    "runtime-version" : "22.08",
    "sdk" : "org.freedesktop.Sdk",
    "sdk-extensions" : [
        "org.freedesktop.Sdk.Extension.vala"
    ],
    "command" : "ejercicio_pigmalion",
    "finish-args" : [
    ],
    "build-options" : {
        "append-path" : "/usr/lib/sdk/vala/bin",
        "prepend-ld-library-path" : "/usr/lib/sdk/vala/lib"
    },
    "cleanup" : [
        "/include",
        "/lib/pkgconfig",
        "/man",
        "/share/doc",
        "/share/gtk-doc",
        "/share/man",
        "/share/pkgconfig",
        "/share/vala",
        "*.la",
        "*.a"
    ],
    "modules" : [
	{
	    "name": "libgee",
            "buildsystem": "meson",
            "config-opts": [
		"--libdir=lib"
            ],
		"builddir": true,
		"sources": [
			{
				"type": "git",
				"tag": "meson",
				"url": "https://github.com/GNOME/libgee.git"
			}
		]
	},
        {
            "name" : "ejercicio_pigmalion",
            "builddir" : true,
            "buildsystem" : "meson",
            "sources" : [
                {
                    "type" : "git",
                    "url" : "file:///home/arik/Proyectos"
                }
            ]
        }
    ]
}
